<svg width="29" height="29" viewBox="0 0 29 29" fill="none" xmlns="http://www.w3.org/2000/svg">
<path d="M1.65717 4.14287C1.65717 2.31244 3.14102 0.828583 4.97145 0.828583H19.8857C21.7162 0.828583 23.2 2.31244 23.2 4.14287V24.0286C23.2 25.859 21.7162 27.3429 19.8857 27.3429H4.97145C3.14102 27.3429 1.65717 25.859 1.65717 24.0286V4.14287Z" fill="white"/>
<path fill-rule="evenodd" clip-rule="evenodd" d="M0.828613 4.14286C0.828613 1.85482 2.68343 0 4.97147 0H19.8858C22.1738 0 24.0286 1.85482 24.0286 4.14286V24.0286C24.0286 26.3166 22.1738 28.1714 19.8858 28.1714H4.97147C2.68343 28.1714 0.828613 26.3166 0.828613 24.0286V4.14286ZM4.97147 1.65714C3.59865 1.65714 2.48576 2.77004 2.48576 4.14286V24.0286C2.48576 25.4014 3.59865 26.5143 4.97147 26.5143H19.8858C21.2586 26.5143 22.3715 25.4014 22.3715 24.0286V4.14286C22.3715 2.77004 21.2586 1.65714 19.8858 1.65714H4.97147Z" fill="#EF5734"/>
<path fill-rule="evenodd" clip-rule="evenodd" d="M5.80005 6.62856C5.80005 6.17095 6.17101 5.79999 6.62862 5.79999H18.2286C18.6862 5.79999 19.0572 6.17095 19.0572 6.62856C19.0572 7.08617 18.6862 7.45713 18.2286 7.45713H6.62862C6.17101 7.45713 5.80005 7.08617 5.80005 6.62856Z" fill="#EF5734"/>
<path fill-rule="evenodd" clip-rule="evenodd" d="M5.80005 12.4286C5.80005 11.971 6.17101 11.6 6.62862 11.6H18.2286C18.6862 11.6 19.0572 11.971 19.0572 12.4286C19.0572 12.8862 18.6862 13.2571 18.2286 13.2571H6.62862C6.17101 13.2571 5.80005 12.8862 5.80005 12.4286Z" fill="#EF5734"/>
<path fill-rule="evenodd" clip-rule="evenodd" d="M5.80005 18.2286C5.80005 17.771 6.17101 17.4 6.62862 17.4H10.7715C11.2291 17.4 11.6 17.771 11.6 18.2286C11.6 18.6862 11.2291 19.0571 10.7715 19.0571H6.62862C6.17101 19.0571 5.80005 18.6862 5.80005 18.2286Z" fill="#EF5734"/>
<path d="M27.3429 21.5428C27.3429 25.2037 24.3752 28.1714 20.7143 28.1714C17.0535 28.1714 14.0858 25.2037 14.0858 21.5428C14.0858 17.882 17.0535 14.9143 20.7143 14.9143C24.3752 14.9143 27.3429 17.882 27.3429 21.5428Z" fill="white"/>
<path fill-rule="evenodd" clip-rule="evenodd" d="M20.7143 15.7429C17.511 15.7429 14.9143 18.3396 14.9143 21.5429C14.9143 24.7461 17.511 27.3429 20.7143 27.3429C23.9175 27.3429 26.5143 24.7461 26.5143 21.5429C26.5143 18.3396 23.9175 15.7429 20.7143 15.7429ZM13.2571 21.5429C13.2571 17.4244 16.5958 14.0857 20.7143 14.0857C24.8328 14.0857 28.1714 17.4244 28.1714 21.5429C28.1714 25.6613 24.8328 29 20.7143 29C16.5958 29 13.2571 25.6613 13.2571 21.5429Z" fill="#EF5734"/>
<path fill-rule="evenodd" clip-rule="evenodd" d="M20.7144 16.9857C21.172 16.9857 21.5429 17.3567 21.5429 17.8143V21.1548L23.7305 22.9778C24.0821 23.2707 24.1296 23.7932 23.8366 24.1447C23.5437 24.4963 23.0212 24.5438 22.6697 24.2508L20.1839 22.1794C19.995 22.022 19.8858 21.7888 19.8858 21.5429V17.8143C19.8858 17.3567 20.2568 16.9857 20.7144 16.9857Z" fill="#EF5734"/>
</svg>
